TESTE ISD/Mux 8.1 2x4.1/Mux 8.1 2x4.1 (exericicio 1)/simulation/qsim/Mux812x41.msim.vcd
$comment
	File created using the following command:
		vcd file Mux812x41.msim.vcd -direction
$end
$date
	Sun Dec 19 13:28:03 2021
$end
$version
	ModelSim Version 2020.1
$end
$timescale
	1ps
$end

$scope module BlocoMux812x41_vlg_vec_tst $end
$var reg 1 ! I0 $end
$var reg 1 " I1 $end
$var reg 1 # I2 $end
$var reg 1 $ I3 $end
$var reg 1 % I4 $end
$var reg 1 & I5 $end
$var reg 1 ' I6 $end
$var reg 1 ( I7 $end
$var reg 1 ) S $end
$var wire 1 * Y $end

$scope module i1 $end
$var wire 1 + gnd $end
$var wire 1 , vcc $end
$var wire 1 - unknown $end
$var tri1 1 . devclrn $end
$var tri1 1 / devpor $end
$var tri1 1 0 devoe $end
$var wire 1 1 I1~input_o $end
$var wire 1 2 I2~input_o $end
$var wire 1 3 I3~input_o $end
$var wire 1 4 I4~input_o $end
$var wire 1 5 I5~input_o $end
$var wire 1 6 I6~input_o $end
$var wire 1 7 Y~output_o $end
$var wire 1 8 I7~input_o $end
$var wire 1 9 I0~input_o $end
$var wire 1 : S~input_o $end
$var wire 1 ; inst|inst3~0_combout $end
$upscope $end
$upscope $end
$enddefinitions $end
#0
$dumpvars
1!
0"
0#
0$
0%
0&
0'
0(
0)
1*
0+
1,
x-
1.
1/
10
01
02
03
04
05
06
17
08
19
0:
1;
$end
#120000
0!
1"
1)
09
11
1:
0;
07
0*
#240000
1#
0"
12
01
#360000
1$
0#
13
02
#480000
1%
0$
14
03
#600000
1&
0%
15
04
#720000
1'
0&
16
05
#840000
1(
0'
18
06
1;
17
1*
#960000
0)
0(
0:
08
0;
07
0*
